[
    {
        "brand":"realme",
        "manufacturer":"realme",
        "project":"2070C",
        "name":"default",
        "product":"RMX3242",
        "device":"RE513CL1",
        "model":"RMX3242",
        "first_api_level":"30",
        "base_oses": [
            {
              "13": "realme/RMX3242/RE513CL1:13/TP1A.220905.001/R.df31f2-605c:user/release-keys"
            }
        ]
    }
]
